%YAML 1.1
%TAG !u! tag:unity3d.com,2011:
--- !u!1045 &1
EditorBuildSettings:
  m_ObjectHideFlags: 0
  serializedVersion: 2
  m_Scenes:
  - enabled: 1
    path: Assets/Scenes/New Scene 1.unity
    guid: 8258c8a088027d3459ca95b640f6ca17
  - enabled: 1
    path: Assets/Scenes/New Scene.unity
    guid: ab6512376ba61b94ea7a637080dbdc80
  - enabled: 1
    path: Assets/Scenes/SampleScene.unity
    guid: 9fc0d4010bbf28b4594072e72b8655ab
  m_configObjects:
    Unity.XR.Oculus.Settings: {fileID: 11400000, guid: 81fbfa0651013ee498abc8c90fcff077, type: 2}
    Unity.XR.WindowsMR.Settings: {fileID: 11400000, guid: 34a1733b1f8003d4182059bfaf1f501e, type: 2}
    UnityEditor.XR.ARCore.ARCoreSettings: {fileID: 11400000, guid: 7c18171567cc986428bcd9c45f96eb74, type: 2}
    com.unity.xr.management.loader_settings: {fileID: 11400000, guid: 120c1147653b1a447b171cffbe2084a9, type: 2}
